0 1069
1 1030
2 1071
3 1072
4 1037
5 1012
6 1034
7 979
8 1014
9 986
10 1031
11 1041
12 1070
13 1022
14 982
15 1095
16 995
17 1012
18 1001
19 1065
20 1055
21 1011
22 992
23 1004
24 1024
25 1106
26 1049
27 988
28 1072
29 1024
30 1029
31 1038
32 1054
33 966
34 1041
35 977
36 1009
37 1109
38 1094
39 965
40 1003
41 1028
42 989
43 996
44 1021
45 1049
46 1061
47 1016
48 1031
49 1039
50 1083
51 996
52 985
53 1001
54 1005
55 1038
56 978
57 1006
58 1006
59 1022
60 986
61 966
62 976
63 1062
64 1018
65 1090
66 993
67 968
68 1024
69 1077
70 993
71 1011
72 1043
73 1033
74 1061
75 976
76 1008
77 1034
78 1019
79 1050
80 1053
81 1050
82 1020
83 1009
84 1012
85 1037
86 1076
87 983
88 1034
89 1022
90 1030
91 1048
92 1027
93 1009
94 987
95 996
96 1085
97 1029
98 1070
99 1045
100 981
101 1064
102 1097
103 1024
104 1053
105 958
106 1010
107 1016
108 1011
109 997
110 1018
111 1078
112 1026
113 1006
114 1021
115 1047
116 1050
117 1089
118 1016
119 984
120 996
121 1017
122 1079
123 1002
124 1008
125 1031
126 1013
127 1024
128 1062
129 1029
130 1011
131 1036
132 981
133 1037
134 1020
135 981
136 984
137 991
138 1072
139 1022
140 1040
141 1018
142 1054
143 1031
144 1032
145 1027
146 1048
147 1049
148 1035
149 1040
150 1017
151 976
152 1034
153 976
154 1023
155 1013
156 1032
157 983
158 1027
159 1020
160 1006
161 1014
162 986
163 1026
164 1015
165 1024
166 1045
167 1024
168 1056
169 1024
170 992
171 1038
172 1029
173 1013
174 1032
175 1087
176 1008
177 1020
178 991
179 945
180 1000
181 1058
182 1053
183 1023
184 1031
185 1024
186 1025
187 1045
188 1083
189 1033
190 1055
191 1026
192 1054
193 1003
194 1044
195 1023
196 968
197 1025
198 1015
199 998
200 1041
201 1014
202 1056
203 1051
204 1066
205 1000
206 1061
207 1045
208 970
209 1033
210 985
211 972
212 1023
213 1007
214 970
215 978
216 1045
217 1023
218 1076
219 1002
220 1078
221 1001
222 1043
223 996
224 1058
225 1043
226 1027
227 1021
228 1014
229 1062
230 985
231 1005
232 1033
233 1040
234 991
235 1011
236 1007
237 1036
238 981
239 1040
240 1028
241 998
242 989
243 1034
244 1062
245 1038
246 1018
247 1036
248 1031
249 1049
250 1016
251 966
252 1040
253 997
254 1004
255 982
